digital/outfiles/out_camera_fsm_tb.vcd
$date
	Mon Nov  4 16:26:18 2019
$end
$version
	Icarus Verilog
$end
$timescale
	1ps
$end
$scope module camera_fsm_tb $end
$var wire 1 ! nre2 $end
$var wire 1 " nre1 $end
$var wire 1 # expose $end
$var wire 1 $ erase $end
$var wire 1 % adc $end
$var reg 1 & clk $end
$var reg 1 ' dec $end
$var reg 1 ( inc $end
$var reg 1 ) init $end
$var reg 1 * reset $end
$scope module test_camera $end
$var wire 1 & clk $end
$var wire 1 ' exponer_dec $end
$var wire 1 ( exponer_inc $end
$var wire 1 ) init $end
$var wire 1 * reset $end
$var wire 1 + readout_finished $end
$var wire 1 ! nre_2 $end
$var wire 1 " nre_1 $end
$var wire 1 , fcd_finished $end
$var wire 5 - fcd_data [4:0] $end
$var wire 1 . exp_inc $end
$var wire 1 / exp_dec $end
$var wire 1 % adc_enable $end
$var reg 2 0 current_state [1:0] $end
$var reg 1 $ erase $end
$var reg 1 1 exp_reset $end
$var reg 1 # expose $end
$var reg 1 2 fcd_dset $end
$var reg 1 3 fcd_enable $end
$var reg 2 4 next_state [1:0] $end
$var reg 1 5 readout_enable $end
$var reg 1 6 readout_reset $end
$scope module countdown_reg $end
$var wire 1 & clk $end
$var wire 1 2 dset $end
$var wire 1 3 enable $end
$var wire 1 , finished $end
$var wire 5 7 dread_data [4:0] $end
$var reg 5 8 data_int [4:0] $end
$upscope $end
$scope module exposure_reg $end
$var wire 1 & clk $end
$var wire 1 / dec $end
$var wire 1 . inc $end
$var wire 1 1 reset $end
$var reg 5 9 q [4:0] $end
$upscope $end
$scope module readout_sequencer $end
$var wire 1 & clk $end
$var wire 1 5 enable $end
$var wire 1 6 reset $end
$var wire 1 + finished $end
$var reg 1 % adc $end
$var reg 1 " nre1 $end
$var reg 1 ! nre2 $end
$var reg 4 : step [3:0] $end
$upscope $end
$upscope $end
$upscope $end
$enddefinitions $end
#0
$dumpvars
bx :
b1111 9
bx 8
b1111 7
x6
x5
bx 4
x3
x2
x1
b11 0
0/
0.
b1111 -
x,
x+
1*
0)
0(
0'
0&
x%
x$
x#
x"
x!
$end
#1000
b11 0
1&
#2000
0&
0"
0!
0%
b0 4
06
01
0*
#3000
0+
b0 :
b0 0
0#
1$
05
16
03
12
1&
#4000
0&
#5000
0,
b1111 8
1&
#6000
0&
#7000
b10000 -
b10000 7
b10000 9
1&
1.
1(
#8000
0&
#9000
b10001 -
b10001 7
b10001 9
b10000 8
1&
1/
1'
#10000
0&
#11000
b10001 8
b10010 -
b10010 7
b10010 9
1&
#12000
0&
#13000
b10011 -
b10011 7
b10011 9
b10010 8
1&
#14000
0&
#15000
b10011 8
b10100 -
b10100 7
b10100 9
1&
#16000
0&
#17000
b10101 -
b10101 7
b10101 9
b10100 8
1&
#18000
0&
#19000
b10101 8
b10110 -
b10110 7
b10110 9
1&
#20000
0&
#21000
b10111 -
b10111 7
b10111 9
b10110 8
1&
#22000
0&
#23000
b10111 8
b11000 -
b11000 7
b11000 9
1&
#24000
0&
#25000
b11001 -
b11001 7
b11001 9
b11000 8
1&
#26000
0&
#27000
b11001 8
b11010 -
b11010 7
b11010 9
1&
#28000
0&
#29000
b11011 -
b11011 7
b11011 9
b11010 8
1&
#30000
0&
#31000
b11011 8
b11100 -
b11100 7
b11100 9
1&
#32000
0&
#33000
b11101 -
b11101 7
b11101 9
b11100 8
1&
#34000
0&
#35000
b11101 8
b11110 -
b11110 7
b11110 9
1&
#36000
0&
#37000
b11110 8
1&
#38000
0&
#39000
b11101 -
b11101 7
b11101 9
1&
0.
0(
#40000
0&
#41000
b11100 -
b11100 7
b11100 9
b11101 8
1&
#42000
0&
#43000
b11100 8
1&
0/
0'
#44000
0&
#45000
b1 0
1#
0$
13
02
1&
b1 4
1)
#46000
0&
#47000
b11011 8
1&
#48000
0&
#49000
b11010 8
1&
0)
#50000
0&
#51000
b11001 8
1&
#52000
0&
#53000
b11000 8
1&
#54000
0&
#55000
b10111 8
1&
#56000
0&
#57000
b10110 8
1&
#58000
0&
#59000
b10101 8
1&
#60000
0&
#61000
b10100 8
1&
#62000
0&
#63000
b10011 8
1&
#64000
0&
#65000
b10010 8
1&
#66000
0&
#67000
b10001 8
1&
#68000
0&
#69000
b10000 8
1&
#70000
0&
#71000
b1111 8
1&
#72000
0&
#73000
b1110 8
1&
#74000
0&
#75000
b1101 8
1&
#76000
0&
#77000
b1100 8
1&
#78000
0&
#79000
b1011 8
1&
1(
#80000
0&
#81000
b1010 8
1&
#82000
0&
#83000
b1001 8
1&
0(
#84000
0&
#85000
b1000 8
1&
#86000
0&
#87000
b111 8
1&
#88000
0&
#89000
b110 8
1&
#90000
0&
#91000
b101 8
1&
#92000
0&
#93000
b100 8
1&
#94000
0&
#95000
b11 8
1&
#96000
0&
#97000
b10 8
1&
#98000
0&
#99000
b10 4
1,
b1 8
1&
#100000
0&
#101000
b0 8
b10 0
0#
15
06
03
12
1&
#102000
0&
#103000
0,
1"
b1 :
b11100 8
1&
#104000
0&
#105000
1%
b10 :
1&
#106000
0&
#107000
0%
b11 :
1&
#108000
0&
#109000
0"
b100 :
1&
#110000
0&
#111000
1!
b101 :
1&
b11 0
1*
#112000
0&
#113000
0!
0%
b0 :
b0 0
1$
05
1&
b0 4
16
01
0*
#114000
0&
#115000
1&
#116000
0&
#117000
b11011 -
b11011 7
b11011 9
1&
1/
1'
#118000
0&
#119000
b11011 8
b11010 -
b11010 7
b11010 9
1&
#120000
0&
#121000
b11001 -
b11001 7
b11001 9
b11010 8
1&
#122000
0&
#123000
b11001 8
b11000 -
b11000 7
b11000 9
1&
#124000
0&
#125000
b10111 -
b10111 7
b10111 9
b11000 8
1&
#126000
0&
#127000
b10111 8
b10110 -
b10110 7
b10110 9
1&
#128000
0&
#129000
b10101 -
b10101 7
b10101 9
b10110 8
1&
#130000
0&
#131000
b10101 8
b10100 -
b10100 7
b10100 9
1&
#132000
0&
#133000
b10011 -
b10011 7
b10011 9
b10100 8
1&
#134000
0&
#135000
b10011 8
b10010 -
b10010 7
b10010 9
1&
#136000
0&
#137000
b10001 -
b10001 7
b10001 9
b10010 8
1&
#138000
0&
#139000
b10001 8
b10000 -
b10000 7
b10000 9
1&
#140000
0&
#141000
b1111 -
b1111 7
b1111 9
b10000 8
1&
#142000
0&
#143000
b1111 8
b1110 -
b1110 7
b1110 9
1&
#144000
0&
#145000
b1101 -
b1101 7
b1101 9
b1110 8
1&
#146000
0&
#147000
b1101 8
b1100 -
b1100 7
b1100 9
1&
#148000
0&
#149000
b1011 -
b1011 7
b1011 9
b1100 8
1&
#150000
0&
#151000
b1011 8
b1010 -
b1010 7
b1010 9
1&
#152000
0&
#153000
b1001 -
b1001 7
b1001 9
b1010 8
1&
#154000
0&
#155000
b1001 8
b1000 -
b1000 7
b1000 9
1&
#156000
0&
#157000
b111 -
b111 7
b111 9
b1000 8
1&
#158000
0&
#159000
b111 8
b110 -
b110 7
b110 9
1&
#160000
0&
#161000
b101 -
b101 7
b101 9
b110 8
1&
#162000
0&
#163000
b101 8
b100 -
b100 7
b100 9
1&
#164000
0&
#165000
b11 -
b11 7
b11 9
b100 8
1&
#166000
0&
#167000
b11 8
b10 -
b10 7
b10 9
1&
#168000
0&
#169000
b10 8
1&
#170000
0&
#171000
1&
#172000
0&
#173000
1&
#174000
0&
#175000
1&
#176000
0&
#177000
b1 0
1#
0$
13
02
1&
b1 4
0/
1)
0'
#178000
0&
0)
#179000
b10 4
1,
b1 8
1&
1'
#180000
0&
#181000
b0 8
b10 0
0#
15
06
03
12
1&
#182000
0&
#183000
0,
1"
b1 :
b10 8
1&
#184000
0&
#185000
1%
b10 :
1&
#186000
0&
#187000
0%
b11 :
1&
#188000
0&
#189000
0"
b100 :
1&
#190000
0&
#191000
1!
b101 :
1&
#192000
0&
#193000
1%
b110 :
1&
#194000
0&
#195000
0%
b111 :
1&
#196000
0&
#197000
b0 4
1+
0!
b1000 :
1&
#198000
0&
#199000
0+
b0 :
1/
b0 0
1$
05
16
1&
